{
  "users": [
    {
      "firstName": "A",
      "lastName": "Nguyen",
      "userName": "Nguyen Van A",
      "email": "nguyenvana@gmail.com",
      "password": "admin123",
      "id": 1
    }
  ],
  "posts": [
    {
      "title": "Dynamic Page Titles With The Vue Router",
      "category": "Technology AI",
      "date": "26/12/2021",
      "content": "<p>In this video, we will take a look at the property in CSS. It's used to handle situations where we want to alter the appearance of an element. It has many cases where it can be used. Today, we are going to look at how we can create a slanted/skewed div using this property!</p>",
      "image": "https://images.unsplash.com/photo-1512314889357-e157c22f938d?ixlib=rb-1.2.1&ixid=MnwxMjA3fDB8MHxzZWFyY2h8Mnx8cG9zdCUyMGl0fGVufDB8fDB8fA%3D%3D&auto=format&fit=crop&w=500&q=60",
      "id": 1
    },
    {
      "title": "SmartDev’s Internships, Client Process, and Fun-loving Side",
      "category": "ODC",
      "date": "13/01/2022",
      "content": "<p><span style=\"background-color: transparent;\">If you haven’t heard, Da Nang is an up-and-coming tech development hotspot, with an emphasis on “up” these days. A combination of a large and growing young, hip, well-educated population, an excellent natural environment, and a government friendly to and focused on tech development makes the city an excellent place for a tech company like SmartDev.&nbsp;</span></p><p><span style=\"background-color: transparent;\">Because our offshore development center (ODC) calls this town home, we consider it our responsibility to do our part for the community by providing internships for talented youngsters itching to break into the tech field. It’s something that’s worked out well for all involved. Here, we’ll tell you just how it benefits the community and its young people, us, and our clients. We’re looking at a win-win-win scenario here. It’s both wholesome and useful.&nbsp;</span></p><p><br></p><h2><span style=\"background-color: transparent;\">SmartDev’s Internship Program</span></h2><p><br></p><p><span style=\"background-color: transparent;\">Let’s start with a simple assertion: Education is positively exploding in Vietnam, producing world-class talent in many sectors. Many talented young people gravitate towards software development, which is where we come in.&nbsp;</span></p><p><br></p><p><span style=\"background-color: transparent;\"><img src=\"https://smartdev.com/wp-content/uploads/2022/01/269796865_329350665831825_4210223299581887224_n-1024x683.jpg\" height=\"683\" width=\"1024\"></span></p><p><br></p><p><span style=\"background-color: transparent;\">We offer internships to students at local universities with the aim of helping students hone their software skills. These internships are far more than just a formality: Students learn real working skills on the job and work closely with mentors and even our HR department to get the “Real Job Feel.” Those who have been through internships will likely remember the experience of their first job or internship and how far they’ve come since then.&nbsp;</span></p><p><span style=\"background-color: transparent;\">Hopefully, if that’s you, you’ll remember your experience fondly. We sincerely aim for that to be the case for our interns, too.&nbsp;</span></p><p><span style=\"background-color: transparent;\">The numbers tend to back up our optimism. Often, up to 60% of our interns end up joining the company as employees after their internship. Launching our internship program, we have a four-stage recruitment process that goes like this:</span></p><ul><li><span style=\"background-color: transparent;\">Step 1: Interns undergo an online test.</span></li><li>Step 2: Interns then undergo a technical interview.</li><li>Step 3: Those steps are followed up by an HR Interview.</li><li>Step 4: If the student passes steps 1-3, they’ll receive an intern agreement followed by on-boarding.</li></ul><p><span style=\"background-color: transparent;\">Because our interns work directly with the company, we’ve noticed there’s fewer cases of the jitters during interviews — familiarity breeds confidence.&nbsp;</span></p><p><br></p>",
      "image": "https://images.unsplash.com/photo-1519389950473-47ba0277781c?ixlib=rb-1.2.1&ixid=MnwxMjA3fDB8MHxzZWFyY2h8Nnx8dGVjaG5vbG9neXxlbnwwfHwwfHw%3D&auto=format&fit=crop&w=500&q=60",
      "id": 3
    },
    {
      "title": "How DevOps Oils the Gears of Business",
      "category": "Technology",
      "date": "26/12/2021",
      "content": "<p>Modern business is constantly under pressure, and websites prove the rule more than the exception. This pressure translates to high load on websites, especially those designed for cutting-edge commerce. High-load websites require secure, swift development as well as reliable maintenance.</p><p>Without security and reliability, well…disaster can strike.</p><p>One recent striking example of disaster striking is the 6-hour “maintenance-caused” shutdown of Facebook — which resulted in a&nbsp;<a href=\"https://www.cnbc.com/2021/10/06/facebook-outage-lost-ad-revenue-advertisers-could-seek-refunds.html\" rel=\"noopener noreferrer\" target=\"_blank\" style=\"color: rgb(0, 180, 255); background-color: transparent;\">loss of nearly $100 million in revenue</a>&nbsp;and&nbsp;<a href=\"https://www.forbes.com/sites/abrambrown/2021/10/04/zuckerberg-net-worth-billionaire-facebook-stock-outage/?sh=4266d4dd56fc\" rel=\"noopener noreferrer\" target=\"_blank\" style=\"color: rgb(0, 180, 255); background-color: transparent;\">billions in stock valuation</a>.</p><p>CEOs may be experts at directing their company,&nbsp;but they’re not necessarily IT specialists. This lack of technical expertise can lead to vulnerable website infrastructures and a potentially compromised business. Modern website development and maintenance is a complex endeavour that requires a&nbsp;<em style=\"background-color: transparent;\">lot</em>&nbsp;of time, attention, and expertise — which the majority of business leaders cannot reasonably be expected to have. Even Superman has to sleep.</p><p>In many cases, a CEO’s non-expert level of technical knowledge means IT costs are difficult to intuitively understand. Knowing just how to allocate resources to ensure website stability can be tricky, to put it lightly.</p><p>So, is there a way to get the C-suite executives, the IT department, the business’s requirements and the IT infrastructure all pulling in the same direction?</p><p>Yes! If the development tools and processes are up to date, they save transaction costs, reduce downtime, and make crucial things happen faster.</p><p>This is what DevOps is, that’s what it’s for, and that’s how it’s used. DevOps is as much of a philosophy as it is a practice. Like Zen Buddhism, it brings a sense of balance, serenity, and inner strength when it’s done right.</p><p>“Wait,” you ask, “are you talking about the people running the website or the website itself?”</p><p>“Yes,” we reply with a smile.</p><p><br></p>",
      "image": "https://images.unsplash.com/photo-1580894742597-87bc8789db3d?ixlib=rb-1.2.1&ixid=MnwxMjA3fDB8MHxzZWFyY2h8MTR8fHRlY2hub2xvZ3l8ZW58MHx8MHx8&auto=format&fit=crop&w=500&q=60",
      "id": 4
    },
    {
      "title": "How DevOps Oils the Gears of Business 2",
      "category": "Technology",
      "date": "26/12/2021",
      "content": "<p>Modern business is constantly under pressure, and websites prove the rule more than the exception. This pressure translates to high load on websites, especially those designed for cutting-edge commerce. High-load websites require secure, swift development as well as reliable maintenance.</p><p>Without security and reliability, well…disaster can strike.</p><p>One recent striking example of disaster striking is the 6-hour “maintenance-caused” shutdown of Facebook — which resulted in a&nbsp;<a href=\"https://www.cnbc.com/2021/10/06/facebook-outage-lost-ad-revenue-advertisers-could-seek-refunds.html\" rel=\"noopener noreferrer\" target=\"_blank\" style=\"color: rgb(0, 180, 255); background-color: transparent;\">loss of nearly $100 million in revenue</a>&nbsp;and&nbsp;<a href=\"https://www.forbes.com/sites/abrambrown/2021/10/04/zuckerberg-net-worth-billionaire-facebook-stock-outage/?sh=4266d4dd56fc\" rel=\"noopener noreferrer\" target=\"_blank\" style=\"color: rgb(0, 180, 255); background-color: transparent;\">billions in stock valuation</a>.</p><p>CEOs may be experts at directing their company,&nbsp;but they’re not necessarily IT specialists. This lack of technical expertise can lead to vulnerable website infrastructures and a potentially compromised business. Modern website development and maintenance is a complex endeavour that requires a&nbsp;<em style=\"background-color: transparent;\">lot</em>&nbsp;of time, attention, and expertise — which the majority of business leaders cannot reasonably be expected to have. Even Superman has to sleep.</p><p><br></p>",
      "image": "https://images.unsplash.com/photo-1512314889357-e157c22f938d?ixlib=rb-1.2.1&ixid=MnwxMjA3fDB8MHxzZWFyY2h8Mnx8cG9zdCUyMGl0fGVufDB8fDB8fA%3D%3D&auto=format&fit=crop&w=500&q=60",
      "id": 7
    },
    {
      "title": "VeryPlay Studio’s Independence: Strength in Roots",
      "category": "Technology AI",
      "date": "20/02/2022",
      "content": "<p><span style=\"background-color: transparent;\">A new year often heralds new beginnings — or in many cases draws attention to incipient developments that deserve more attention.&nbsp;&nbsp;</span></p><p><span style=\"background-color: transparent;\">The latter is the case we’re here to talk about today, and it’s joyous news indeed: the official foray of&nbsp;</span><a href=\"https://veryplay.studio/\" rel=\"noopener noreferrer\" target=\"_blank\" style=\"background-color: transparent; color: rgb(0, 180, 255);\">VeryPlay Studio</a><span style=\"background-color: transparent;\">&nbsp;into the world of gaming as an independent game studio. With hypercasual releases like Hyper Cyber under our belt and our upcoming flagship game to be released soon, VeryPlay is gaining steam, or this snowball is accelerating downhill. Whichever metaphor you like, the momentum is there, it’s real, and it’s only going to continue.&nbsp;&nbsp;</span></p><p><br></p><p><span style=\"background-color: transparent;\"><img src=\"https://smartdev.com/wp-content/uploads/2022/02/MicrosoftTeams-image-1024x495.jpg\" height=\"495\" width=\"1024\"></span></p><p><span style=\"background-color: transparent;\">We haven’t come all this way on our own so quickly, however. Having a brilliant parent company like VerySell as well as strategic partners like SmartDev means we’re able to access world-class talent and get that right flavor mixture of synergy and innovation that leads to business breakthroughs.&nbsp;&nbsp;</span></p><p><span style=\"background-color: transparent;\">So, we thought we’d tell you a bit about how we here at VeryPlay operate, what you can expect from us, and just what kind of rabbit hole this is, anyway.&nbsp;&nbsp;</span></p><p><br></p><h2><span style=\"background-color: transparent;\">An Independent VeryPlay&nbsp;</span></h2><p><br></p><p><span style=\"background-color: transparent;\">It was fairly big news for us to announce our independence within&nbsp;</span><a href=\"https://verysellgroup.com/\" rel=\"noopener noreferrer\" target=\"_blank\" style=\"background-color: transparent; color: rgb(0, 180, 255);\">our organizational structure</a><span style=\"background-color: transparent;\">. It means that we, as a gaming studio, get to make the games we want while positioning ourselves to be able to provide games clients want, too. As avid video game aficionados, the freedom to create our own games was a dream come true for many — and one that won’t be relinquished.&nbsp;&nbsp;</span></p><p><span style=\"background-color: transparent;\">It’s not like we had to have a revolution for our independence, though. Indeed, we work closely with our partners who see the benefit for all in having a gaming studio that can stand on its own two feet (or four, six, eight, or none, depending on what species is reading this). VeryPlay’s independence resembles mitosis more than, say, Athena springing from Zeus’s forehead.&nbsp;&nbsp;</span></p><p><br></p><p class=\"ql-align-center\"><span style=\"background-color: transparent;\"><img src=\"https://smartdev.com/wp-content/uploads/2022/02/image_2022_02_16T04_39_06_284Z.png\" height=\"414\" width=\"612\"></span></p><p><br></p><h2><span style=\"background-color: transparent;\">Strong Relationships&nbsp;</span></h2><p><br></p><p><span style=\"background-color: transparent;\">Currently, VeryPlay relies on the talent in its broader organization to get things done. We’re fortunate to be close partners with SmartDev, a company known for its development talent, so we hire their programmers to help us develop games. SmartDev handles the recruiting, training, and training; we hire their top game developers once they’re up to speed. This privileged client relationship leads to a beautiful synergy that, we think, is the reason for our success so far.&nbsp;&nbsp;</span></p><p><span style=\"background-color: transparent;\">What works well shouldn’t be fixed, so we’ll continue down this path until there’s a reason for us not to. With explosive growth in our sights, we will rely on the talent that the (similarly exploding) SmartDev organization can bring to us.&nbsp;&nbsp;</span></p><p><br></p><h2><span style=\"background-color: transparent;\">A Bright, Shiny Future&nbsp;</span></h2><p><br></p><p><span style=\"background-color: transparent;\">VeryPlay has already gone through explosive growth, and it’s just the beginning. What was once only a twinkle in (VeryPlay head honcho) Maxime Perniola’s eye is now a reality, with upwards of a dozen employees. That number may soon hit exponential growth, and we wouldn’t at all be surprised if we hit triple digits within the next two years. We’d certainly be proud, however.&nbsp;&nbsp;</span></p><p><span style=\"background-color: transparent;\">So what can you expect from VeryPlay? First and foremost, you can expect fun games. We love good games — both making them and playing them — and, as a gaming studio, we’re in the right position to create what we hope will be instant classics.&nbsp;&nbsp;</span></p><p><span style=\"background-color: transparent;\">You can also expect a gaming studio that’s well-established and experienced enough to deliver games that boost our clients’ images, reputations, and bottom lines. Developing a good game is a solid business move, and it’s not going out of style.&nbsp;&nbsp;</span></p><p><span style=\"background-color: transparent;\">For those who take the leap and decide to work with us, you can count on world-class talent and a sturdy foundation in our Studio. The deeper we grow roots, the more we can tap into the abundant development talent available to us. It’s pretty groovy.&nbsp;&nbsp;</span></p><p><span style=\"background-color: transparent;\">Want to know more about what it’s like to work with us? Have a game idea you’ve been kicking around you’d like to discuss? We’re all ears. Feel free to&nbsp;</span><a href=\"https://smartdev.com/#contact-us\" rel=\"noopener noreferrer\" target=\"_blank\" style=\"background-color: transparent; color: rgb(0, 180, 255);\">reach out to us</a><span style=\"background-color: transparent;\">&nbsp;and we’ll be happy to start a discussion. Especially since that discussion will be about games. Did we mention we like games?&nbsp;</span></p><p><br></p>",
      "image": "https://images.unsplash.com/photo-1496171367470-9ed9a91ea931?ixlib=rb-1.2.1&ixid=MnwxMjA3fDB8MHxzZWFyY2h8MTB8fHRlY2hub2xvZ3l8ZW58MHx8MHx8&auto=format&fit=crop&w=500&q=60",
      "id": 8
    }
  ]
}